Data manipulation – White Rose Analytics 1: Reproducibility with R
…
# A tibble: 2 × 2
  coat    mass
  <chr>  <dbl>
1 ginger  6.37
2 ginger  6.09

filter the raw data to remove calico

cats |> 
  filter(coat != "calico")

# A tibble: 61 × 2
   coat           mass
   <chr>         <dbl>
 1 white          2.8 
 2 tabby          4.96
 3 tortoiseshell  5.86
 4 black          5.74
 5 white          4.3 
 6 tabby          4.92
 7 black          6.23
 8 white          3.23
 9 black          5.91
10 black          5.25
# ℹ 51 more rows
…
